04_describe
…
  # Change to sample number
  mutate(Sample = as.numeric(str_sub(Sample, 
                                     start = 7, 
                                     end = 9))) |>  
  
  #Rename Name column 
  rename("Gene" = "Name")

expression_data_long

# A tibble: 1,814,880 × 4
   Gene  Identifier      Sample Count
   <chr> <chr>            <dbl> <dbl>
 1 A1BG  ENSG00000121410      1     7
 2 A1BG  ENSG00000121410      2     0
 3 A1BG  ENSG00000121410      3     4
 4 A1BG  ENSG00000121410      4     1
 5 A1BG  ENSG00000121410      5     5
 6 A1BG  ENSG00000121410      6     3
 7 A1BG  ENSG00000121410      7     0
 8 A1BG  ENSG00000121410      8    12
 9 A1BG  ENSG00000121410      9     0
10 A1BG  ENSG00000121410     10     0
# ℹ 1,814,870 more rows
…
ggsave("../results/figure_01.jpg",
       plot = figure1,
       width = 5.4,
       height = 7.5,
       device = "jpeg")

full_expression_data |>
  group_by(Sample) |>
  summarise(av = mean(Count)) |>
  mutate(Treatment = case_when(Sample %% 2 == 0  ~ "Post-treatment", #even
                               Sample %% 2 !=0 ~ "Pre-treatment")) #odd

# A tibble: 40 × 3
   Sample     av Treatment     
    <dbl>  <dbl> <chr>         
 1      1 21.6   Pre-treatment 
 2      2  0.548 Post-treatment
 3      3 17.8   Pre-treatment 
 4      4 16.4   Post-treatment
 5      5 14.8   Pre-treatment 
 6      6 17.0   Post-treatment
 7      7 10.8   Pre-treatment 
 8      8  8.63  Post-treatment
 9      9  1.04  Pre-treatment 
10     10  1.17  Post-treatment
# ℹ 30 more rows
…
ggsave("../results/figure_04.jpg",
       plot = figure4,
       width = 20,
       height = 10,
       device = "jpeg")

full_expression_data |>
  filter(Count > 2500 &
         Treatment == "pre_treatment") |>
  select(c(Gene,
           subject_ID,
           Count,
           pCR_status ))

# A tibble: 107 × 4
   Gene       subject_ID Count pCR_status
   <chr>      <chr>      <dbl> <chr>     
 1 AC073140.1 subject_02 10894 pCR       
 2 AC073140.1 subject_07  9494 no_pCR    
 3 AC073140.1 subject_11  9316 no_pCR    
 4 AC073140.1 subject_12  9127 no_pCR    
 5 AC073140.1 subject_14  4634 no_pCR    
 6 AC073140.1 subject_15  2812 no_pCR    
 7 AC073140.1 subject_16  3093 no_pCR    
 8 AC091987.1 subject_01  2848 pCR       
 9 AC091987.1 subject_02  3436 pCR       
10 AD000090.1 subject_01 26288 pCR       
# ℹ 97 more rows
…
